Visual Analytics - Take home Exercise 2
…
Show the code

#|eval: false
#|echo: false

relationship_count <- table(mc2_edges_aggregated$target)

relationship_count_heavy <- names(relationship_count[relationship_count >= 4])

mc2_edges_aggregated <- mc2_edges_aggregated[mc2_edges_aggregated$target %in% relationship_count_heavy, ]

print(mc2_edges_aggregated)

# A tibble: 867 × 6
   source                      target           Year weights sum_weightkg hscode
   <chr>                       <chr>           <dbl>   <int>        <int> <chr> 
 1 1 Limited Liability Company Olas del Mar W…  2034      23       442330 303630
 2 2 Limited Liability Company Caracola del S…  2031      13       269465 303230
 3 2 Limited Liability Company Costa de la Fe…  2033      11       234940 303230
 4 2 Limited Liability Company Costa de la Fe…  2034      11       231170 303230
 5 2 Limited Liability Company David Ltd. Lia…  2034      12       314595 303230
 6 2 Limited Liability Company Faroe Islands …  2033      31       683805 303230
 7 2 Limited Liability Company Faroe Islands …  2034      30       651800 303230
 8 2 Limited Liability Company Mar del Este C…  2031      29       653630 303230
 9 2 Limited Liability Company Mar del Este C…  2033      15       325010 303230
10 2 Limited Liability Company Pao gan SE Seal  2032      15       349520 303230
# ℹ 857 more rows
…
mc2_graph <- tbl_graph(nodes = mc2_nodes_extracted,
                       edges = mc2_edges_aggregated,
                       directed = TRUE)

Show the code

#|echo: false
mc2_graph

# A tbl_graph: 317 nodes and 867 edges
#
# A directed acyclic multigraph with 7 components
#
# A tibble: 317 × 1
  id                                    
  <chr>                                 
1 1 Limited Liability Company           
2 2 Limited Liability Company           
3 Adriatic Mackerel BV Logistics        
4 Andhra Pradesh   Sextant Oyj Forwading
5 Andhra Pradesh  Ltd. Liability Co     
6 Angeline Sea NV Worldwide             
# ℹ 311 more rows
#
# A tibble: 867 × 6
   from    to  Year weights sum_weightkg hscode
  <int> <int> <dbl>   <int>        <int> <chr> 
1     1   256  2034      23       442330 303630
2     2   257  2031      13       269465 303230
3     2   258  2033      11       234940 303230
# ℹ 864 more rows
…
